{
	"boots":[

			{
				"img_src" : "/boots/tjakke_mid.png",
				"name" : "Tjakke Mid",
        "url" : "https://www.lundhags.se/Produkter/Kaengor/Skalkaengor/3-lagerskaengor/Tjakke-Mid/(color)/682",
	      "text":"En helt ny 3-lagerskänga som tagits fram för att passa användare som söker en teknisk allroundkänga. Slitstark och komfortabel även i tuff terräng."
			},
			{
				"img_src" : "/boots/Jaure_high.png",
				"name" : "Jaure II High",
        "url" : "https://www.lundhags.se/Produkter/Kaengor/Skalkaengor/3-lagerskaengor/Jaure-II-High/(color)/912",
	      "text":"Genom den nya Certech® Exp-teknologin har Lundhags mest tekniska känga uppdaterats och blivit än mer slitstark. Heinen Terracare fullnarvsskinn och Airaprene resulterar i bra isolering, hög komfort och god passform."
			},
      {
				"img_src" : "/boots/Jaure_light_high.png",
				"name" : "Jaure II Light High",
        "url" : "https://www.lundhags.se/Produkter/Kaengor/Skalkaengor/3-lagerskaengor/Jaure-II-Light-High/(color)/445",
	      "text":"Avancerad känga som är en lättare version av Jaure II High. Uppdaterad med en rejäl Vibram® Curcuma-sula."
			},
      {
				"img_src" : "/boots/Jaure_mid.png",
				"name" : "Jaure II Mid",
        "url" : "https://www.lundhags.se/Produkter/Kaengor/Skalkaengor/3-lagerskaengor/Jaure-II-Mid/(color)/912",
	      "text":"Stabil 3-lagerskänga med mellanhögt skaft. Certech® Exp-teknologin, Heinen Terracare fullnarvsskinn och Airaprene höjer komforten, isoleringen och passformen ytterligare."
			},
			{
				"img_src" : "/boots/Jaure_light_mid.png",
				"name" : "Jaure II Light Mid",
        "url" : "https://www.lundhags.se/Produkter/Kaengor/Skalkaengor/3-lagerskaengor/Jaure-II-Light-Mid/(color)/923",
	      "text":"Lättviktsversionen av Jaure II Mid. Komfort, isolering och passform i toppklass."
			},
      {
				"img_src" : "/boots/Mira_ws_high.png",
				"name" : "Mira II WS High",
        "url" : "https://www.lundhags.se/Produkter/Kaengor/Skalkaengor/3-lagerskaengor/Mira-II-Ws-High/(color)/454",
	      "text":"Slitstark och teknisk systerkänga till Jaure, med en läst som är anpassad för kvinnlig anatomi."
			},
      {
				"img_src" : "/boots/Mira_ws_light_high.png",
				"name" : "Mira II WS Light High",
        "url" : "https://www.lundhags.se/Produkter/Kaengor/Skalkaengor/3-lagerskaengor/Mira-II-Ws-Light-High/(color)/445",
	      "text":"Slitstark och teknisk känga med lägre vikt än Mira II Ws High."
			},
      {
				"img_src" : "/boots/Mira_ws_light_mid.png",
				"name" : "Mira II WS Light Mid",
        "url" : "https://www.lundhags.se/Produkter/Kaengor/Skalkaengor/3-lagerskaengor/Mira-II-Ws-Light-Mid/(color)/923",
	      "text":"Lättviktskänga med mellanhögt skaft i Heinen Terracare fullnarvsskinn och läst som är anpassad för kvinnlig anatomi."
			},
      {
				"img_src" : "/boots/vandra_jr.png",
				"name" : "Vandra II Jr",
        "url" : "https://www.lundhags.se/Produkter/Kaengor/Skalkaengor/1-lagerskaengor/Vandra-II-Jr/(color)/475",
        "text" : "Juniorkängan Vandra har uppdaterats med en mjukare nederdel med Certech® Exp-teknologi. Opti-lästen är speciellt framtagen för barn och växande fötter med plats för sockor."
			}

		]

}
