{
	"pagecontent":{
    "menu": [
      {
        "text": "Filosofi",
        "link": "filosofi"
      },
      {
        "text": "WP Hybrid",
        "link": "hybrid"
      },
      {
        "text": "Stretch Hybrid",
        "link": "hybrid-stretch"
      },
      {
        "text": "Waterproof",
        "link": "waterproof"
      }
    ],
    "section1": {
      "title": "Byxor",
      "text": "Vi hämtar inspiration från den natur vi själva vistas i. Natur som är storslagen, vild och nordisk. I den här miljön ska våra byxor kunna användas – oavsett årstid, väder och vind.",
      "link": "#",
      "linkText": "Läs mer"
    },
    "section2": {
      "title": "Skräddarsydda<br/>efter dina behov",
      "text": "Nästan ingenting är konstant i naturen. Årstider, färger och förutsättningar skiftar i ett ständigt flöde. Vårt sortiment är utvecklat för att möta alla behov och vi har delat in våra byxor i tre kategorier; vattentäta hybrider (WP Hybrid), Stretchhybrider och vattentäta skal (Waterproof).",
      "link":"#",
      "linkText": "Läs mer"
    },
    "section3": {
      "title": "Passform och<br/>funktion",
      "text": "Passform och funktion har sällan varit synonymt. Ett av våra signum är plagg med god passform. När vi kombinerar den med funktionella detaljer och noggrant utvalda material, blir resultatet byxor som är både slittåliga och sköna att bära. Byxor som du vill röra dig i.",
      "link":"#",
      "linkText": "Läs mer"
    },
    "product1": {
      "title": "WP Hybrid",
      "text": "I hybridbyxorna har vi kombinerat Lundhags PolyCotton stretch (LPC stretch) med vårt med vårt vattentäta 3-lagersmembran Zethar. På så vis har vi skapat en byxa som är vattentät där du behöver det som mest – på knän, bak, lårens framsida och underbenen. LPC-panelerna gör att byxan ventilerar väl och att du kan anstränga dig i dem utan att svettas.",
      "link": "https://www.lundhags.se/content/search?SearchText=antjah+pant",
      "linkText": "Antjah",
      "linkCategory": "https://www.lundhags.se/Produkter/Klaeder/Byxor",
      "linkCategoryText": "Se alla byxor",
      "features": [
        "Inbyggd justering i midja för bättre passform.",
        "3-lagers vattentätt Zethar över säte och framsida av byxben.",
        "Förböjda knän för bättre passform och ökad rörlighet.",
        "Lång tvåvägsdragkedja på underbenet ger generös ventilation.",
        "Justering i benslut tätar mot vind och väta.",
        "Ventilation genom handfickorna.",
        "Rymlig ficka med dragkedja på höger ben.",
        "LPC med mekanisk stretch för ökad rörlighet.",
        "Keprotec-förstärkningar längst ner på byxan ger extra förstärkning där slitaget är som hårdast.",
        "Kängkrokar som kan fästas i kängans snörning för att hålla byxbenet på plats.",
      ]
    },
    "product2": {
      "title": "Stretch Hybrid",
      "text": "Våra hybridbyxor med stretch är utvecklade för att du ska kunna röra dig så fritt som möjligt. Byxorna är slitstarka och har generösa stretchpaneler på rätt ställen för ökad följsamhet.",
      "link": "https://www.lundhags.se/content/search?SearchText=makke+pant",
      "linkText": "Makke",
      "linkCategory": "https://www.lundhags.se/Produkter/Klaeder/Byxor",
      "linkCategoryText": "Se alla byxor",
      "features": [
        "Stretchparti över höft och säte.",
        "Figurnära och följsam passform.",
        "LPC med mekanisk stretch för ökad rörlighet.",
        "Förböjda knän.",
        "Schoeller Dryskin stretch över säte och framsida underben för maximal rörlighet och slitstyrka.",
        "Kängkrok som kan fästas i kängans snörning för att hålla byxbenet på plats.",
        "Ventilation genom handfickorna.",
        "Bälgfickor med mobilinnerficka och plats för karta och kompass.",
        "Ventilation på insidan av låret.",
        "Tvåvägsventilation på utsidan av underbenet.",
        "Keprotec-förstärkningar längst ner på byxan ger extra förstärkning där slitaget är som hårdast.",
        "Justering i benslut."
      ]
    },
    "product3": {
      "title": "Solid",
      "text": "Byxorna i kategorin Solid är sydda i Lundhags PolyCotton (LPC), vår egen blandning av polyester och bomull. Blandningen gör dem mångsidiga och slitstarka, dessutom har de god andningsförmåga. Tyget har en behaglig struktur som man gärna har direkt mot huden, oavsett temperatur.",
      "link": "https://www.lundhags.se/content/search?SearchText=jonten+pant",
      "linkText": "Jonten Pant",
      "linkCategory": "https://www.lundhags.se/Produkter/Klaeder/Byxor",
      "linkCategoryText": "Se alla byxor",
      "features": [
        "Handfickor.",
        "Innerficka för mobilen.",
        "LPC är ett behagligt mjuk material med bra andningsförmåga som är vindtåligt och vattenavvisande vid behandling.",
        "Generösa bälgfickor med rejält lock med plats för det som du vill ha nära till hands.",
        "Förböjda knän för bättre passform och ökad rörlighet.",
        "Rålängd gör att byxan enkelt kan anpassas efter din egen längd.",
      ]
    },
    "product4": {
      "title": "Waterproof",
      "text": "När vädret är dåligt, eller låt säga krävande, med mycket nederbörd, hittar du våra bäst lämpade plagg i kategorin Waterproof. Till dessa byxor använder vi 3-lagers Zethar och om du klär dig enligt lager-på-lager-principen står du väl rustad för alla väderförhållanden, från hällregn till kall blötsnö.",
      "link": "https://www.lundhags.se/content/search?SearchText=rocketeer+pant",
      "linkText": "Rocketeer Pant",
      "linkCategory": "https://www.lundhags.se/Produkter/Klaeder/Byxor",
      "linkCategoryText": "Se alla byxor",
      "features": [
        "Handfickor med vattenavvisande dragkedjor.",
        "3-lagers Zetharmembran håller dig torr.",
        "Rymlig benficka med kraftigt lock ger snabb tillgång till det du vill ha nära till hands.",
        "Ventilation med lång 2-vägsdragkedja längs benen.",
        "Förböjda knän med plats för knäskydd.",
        "Schoeller Keprotec-förstärkning från knän och ner för maximal slitstyrka.",
        "Kängkrok som kan fästas i kängans snörning för att hålla byxbenet på plats.",
        "Justering i benslut tätar mot vind och väta."
      ]
    },
    "section4": {
      "title": "Se byxorna ta form",
      "text": "En byxas användningsområde styr funktionaliteten i plagget. Design, materialval, prototyp, test, justering och nya prototyper – resan till färdig produkt är lång, men så ska byxan hålla länge också.",
      "link": "#",
      "linkText": "Se film"
    },
    "section5": {
      "title": "Val utan kval",
      "text": "Rätt material på rätt ställe är vår filosofi vid utvecklingen av nya och befintliga byxmodeller. Form ska följa funktion. Hållbarhet är vårt fokus både estetiskt och slitagemässigt. Materialen vi väljer ska ha minsta möjliga inverkan på naturen.",
      "link": "https://www.lundhags.se/Guider-Inspiration/Materialguider/Klaeder",
      "linkText": "Våra material"
    },
    "section6": {
      "title": "Behandla dina byxor väl",
      "text": "Om du tar hand om dina byxor håller de längre, även om du använder dem mycket och under tuffa förhållanden.",
      "link": "#",
      "linkText": "Se film"
    },
    "section7": {
      "title": "Lundhags byxor",
      "link": "https://www.lundhags.se/Produkter/Klaeder/Byxor",
      "linkText": "Se hela sortimentet"
    }

	}

}
